2019-09-09 10:00:24.198 +02:00 [INF] Starting IdentityServer4 version 2.3.2.0
2019-09-09 10:00:24.273 +02:00 [INF] Using the default authentication scheme Identity.Application for IdentityServer
2019-09-09 10:00:24.274 +02:00 [DBG] Using Identity.Application as default ASP.NET Core scheme for authentication
2019-09-09 10:00:24.274 +02:00 [DBG] Using Identity.External as default ASP.NET Core scheme for sign-in
2019-09-09 10:00:24.275 +02:00 [DBG] Using Identity.External as default ASP.NET Core scheme for sign-out
2019-09-09 10:00:24.275 +02:00 [DBG] Using Identity.Application as default ASP.NET Core scheme for challenge
2019-09-09 10:00:24.276 +02:00 [DBG] Using Identity.Application as default ASP.NET Core scheme for forbid
2019-09-09 10:00:24.417 +02:00 [DBG] Starting grant removal
2019-09-09 10:00:25.163 +02:00 [DBG] Login Url: /Account/Login
2019-09-09 10:00:25.166 +02:00 [DBG] Login Return Url Parameter: ReturnUrl
2019-09-09 10:00:25.166 +02:00 [DBG] Logout Url: /Account/Logout
2019-09-09 10:00:25.167 +02:00 [DBG] ConsentUrl Url: /consent
2019-09-09 10:00:25.167 +02:00 [DBG] Consent Return Url Parameter: returnUrl
2019-09-09 10:00:25.167 +02:00 [DBG] Error Url: /home/error
2019-09-09 10:00:25.167 +02:00 [DBG] Error Id Parameter: errorId
2019-09-09 10:03:33.723 +02:00 [INF] Starting IdentityServer4 version 2.3.2.0
2019-09-09 10:03:33.781 +02:00 [INF] Using the default authentication scheme Identity.Application for IdentityServer
2019-09-09 10:03:33.781 +02:00 [DBG] Using Identity.Application as default ASP.NET Core scheme for authentication
2019-09-09 10:03:33.782 +02:00 [DBG] Using Identity.External as default ASP.NET Core scheme for sign-in
2019-09-09 10:03:33.782 +02:00 [DBG] Using Identity.External as default ASP.NET Core scheme for sign-out
2019-09-09 10:03:33.782 +02:00 [DBG] Using Identity.Application as default ASP.NET Core scheme for challenge
2019-09-09 10:03:33.783 +02:00 [DBG] Using Identity.Application as default ASP.NET Core scheme for forbid
2019-09-09 10:03:33.878 +02:00 [DBG] Starting grant removal
2019-09-09 10:03:34.431 +02:00 [DBG] Login Url: /Account/Login
2019-09-09 10:03:34.434 +02:00 [DBG] Login Return Url Parameter: ReturnUrl
2019-09-09 10:03:34.434 +02:00 [DBG] Logout Url: /Account/Logout
2019-09-09 10:03:34.434 +02:00 [DBG] ConsentUrl Url: /consent
2019-09-09 10:03:34.434 +02:00 [DBG] Consent Return Url Parameter: returnUrl
2019-09-09 10:03:34.435 +02:00 [DBG] Error Url: /home/error
2019-09-09 10:03:34.435 +02:00 [DBG] Error Id Parameter: errorId
2019-09-09 10:04:04.253 +02:00 [DBG] Request path /.well-known/openid-configuration matched to endpoint type Discovery
2019-09-09 10:04:04.264 +02:00 [DBG] Endpoint enabled: Discovery, successfully created handler: IdentityServer4.Endpoints.DiscoveryEndpoint
2019-09-09 10:04:04.267 +02:00 [INF] Invoking IdentityServer endpoint: IdentityServer4.Endpoints.DiscoveryEndpoint for /.well-known/openid-configuration
2019-09-09 10:04:04.273 +02:00 [DBG] Start discovery request
2019-09-09 10:04:04.977 +02:00 [DBG] Found ["openid","profile","api1"] as all scopes in database
2019-09-09 10:04:05.097 +02:00 [DBG] Request path /.well-known/openid-configuration/jwks matched to endpoint type Discovery
2019-09-09 10:04:05.098 +02:00 [DBG] Endpoint enabled: Discovery, successfully created handler: IdentityServer4.Endpoints.DiscoveryKeyEndpoint
2019-09-09 10:04:05.099 +02:00 [INF] Invoking IdentityServer endpoint: IdentityServer4.Endpoints.DiscoveryKeyEndpoint for /.well-known/openid-configuration/jwks
2019-09-09 10:04:05.106 +02:00 [DBG] Start key discovery request
2019-09-09 10:04:05.204 +02:00 [DBG] Request path /connect/authorize matched to endpoint type Authorize
2019-09-09 10:04:05.207 +02:00 [DBG] Endpoint enabled: Authorize, successfully created handler: IdentityServer4.Endpoints.AuthorizeEndpoint
2019-09-09 10:04:05.208 +02:00 [INF] Invoking IdentityServer endpoint: IdentityServer4.Endpoints.AuthorizeEndpoint for /connect/authorize
2019-09-09 10:04:05.212 +02:00 [DBG] Start authorize request
2019-09-09 10:04:05.224 +02:00 [DBG] No user present in authorize request
2019-09-09 10:04:05.229 +02:00 [DBG] Start authorize request protocol validation
2019-09-09 10:04:05.571 +02:00 [DBG] mvc found in database: true
2019-09-09 10:04:05.580 +02:00 [DBG] client configuration validation for client mvc succeeded.
2019-09-09 10:04:05.587 +02:00 [DBG] Checking for PKCE parameters
2019-09-09 10:04:05.589 +02:00 [DBG] No PKCE used.
2019-09-09 10:04:05.666 +02:00 [DBG] Found ["openid","profile"] identity scopes in database
2019-09-09 10:04:05.817 +02:00 [DBG] Found ["api1"] API scopes in database
2019-09-09 10:04:05.830 +02:00 [DBG] Found ["openid","profile"] identity scopes in database
2019-09-09 10:04:05.834 +02:00 [DBG] Found ["api1"] API scopes in database
2019-09-09 10:04:05.844 +02:00 [DBG] Calling into custom validator: IdentityServer4.Validation.DefaultCustomAuthorizeRequestValidator
2019-09-09 10:04:05.859 +02:00 [INF] ValidatedAuthorizeRequest
{"ClientId":"mvc","ClientName":"MVC Client","RedirectUri":"http://localhost:5002/signin-oidc","AllowedRedirectUris":["http://localhost:5002/signin-oidc"],"SubjectId":"anonymous","ResponseType":"code id_token","ResponseMode":"form_post","GrantType":"hybrid","RequestedScopes":"openid profile api1 offline_access","State":"CfDJ8PoZ6vhDMDBFlMgpVxoCiKAZYOzP5vmZrPQeBVVKm28O_6PYB7JX5Cp05j9Lpr-pxSSd0GVxsp_9x289ywkElI7AlWqVnxLslss0tf2vsfPgzgoa1ZzCvMSkLWKJ8oBeEAqswswddQmTrd_ZvIiRqvs65NKX63q2EqyX7YrzMxJNCsKNiqIQVxoxkWbcOKNu32I2puK8Xu5yKB8IGkMNUYMyAm_hrQ1PTOGKLSnwZINXHeXHqYihup3hCQvJSE67dxzrfovuz6SCktiww3riiB_WSyIIt7foDFHrE-mdAcwMwISKxeTTET-nWMZvXvWJR2bq_ipXIxl2N1sgUmRuK9Y","UiLocales":null,"Nonce":"637036130451449956.NWY4MDIwNmUtZWFhZS00MTY3LWIyZWUtMDBlMDJhZmZjNjUxNjA3MTIyYjktMDk0Zi00ZWY4LWJjMjEtNjQ2ZTM5ZjU3Njhh","AuthenticationContextReferenceClasses":null,"DisplayMode":null,"PromptMode":null,"MaxAge":null,"LoginHint":null,"SessionId":null,"Raw":{"client_id":"mvc","redirect_uri":"http://localhost:5002/signin-oidc","response_type":"code id_token","scope":"openid profile api1 offline_access","response_mode":"form_post","nonce":"637036130451449956.NWY4MDIwNmUtZWFhZS00MTY3LWIyZWUtMDBlMDJhZmZjNjUxNjA3MTIyYjktMDk0Zi00ZWY4LWJjMjEtNjQ2ZTM5ZjU3Njhh","state":"CfDJ8PoZ6vhDMDBFlMgpVxoCiKAZYOzP5vmZrPQeBVVKm28O_6PYB7JX5Cp05j9Lpr-pxSSd0GVxsp_9x289ywkElI7AlWqVnxLslss0tf2vsfPgzgoa1ZzCvMSkLWKJ8oBeEAqswswddQmTrd_ZvIiRqvs65NKX63q2EqyX7YrzMxJNCsKNiqIQVxoxkWbcOKNu32I2puK8Xu5yKB8IGkMNUYMyAm_hrQ1PTOGKLSnwZINXHeXHqYihup3hCQvJSE67dxzrfovuz6SCktiww3riiB_WSyIIt7foDFHrE-mdAcwMwISKxeTTET-nWMZvXvWJR2bq_ipXIxl2N1sgUmRuK9Y","x-client-SKU":"ID_NETSTANDARD1_4","x-client-ver":"5.2.0.0"},"$type":"AuthorizeRequestValidationLog"}
2019-09-09 10:04:05.895 +02:00 [INF] Showing login: User is not authenticated
2019-09-09 10:04:05.992 +02:00 [DBG] Start authorize request protocol validation
2019-09-09 10:04:05.997 +02:00 [DBG] mvc found in database: true
2019-09-09 10:04:05.997 +02:00 [DBG] client configuration validation for client mvc succeeded.
2019-09-09 10:04:05.998 +02:00 [DBG] Checking for PKCE parameters
2019-09-09 10:04:05.998 +02:00 [DBG] No PKCE used.
2019-09-09 10:04:06.000 +02:00 [DBG] Found ["openid","profile"] identity scopes in database
2019-09-09 10:04:06.004 +02:00 [DBG] Found ["api1"] API scopes in database
2019-09-09 10:04:06.006 +02:00 [DBG] Found ["openid","profile"] identity scopes in database
2019-09-09 10:04:06.009 +02:00 [DBG] Found ["api1"] API scopes in database
2019-09-09 10:04:06.010 +02:00 [DBG] Calling into custom validator: IdentityServer4.Validation.DefaultCustomAuthorizeRequestValidator
2019-09-09 10:04:06.019 +02:00 [DBG] mvc found in database: true
2019-09-09 10:04:06.020 +02:00 [DBG] client configuration validation for client mvc succeeded.
2019-09-09 10:04:20.907 +02:00 [DBG] CORS request made for path: /Account/Login from origin: null but was ignored because path was not for an allowed IdentityServer CORS endpoint
2019-09-09 10:04:20.967 +02:00 [DBG] Start authorize request protocol validation
2019-09-09 10:04:20.975 +02:00 [DBG] mvc found in database: true
2019-09-09 10:04:20.975 +02:00 [DBG] client configuration validation for client mvc succeeded.
2019-09-09 10:04:20.976 +02:00 [DBG] Checking for PKCE parameters
2019-09-09 10:04:20.976 +02:00 [DBG] No PKCE used.
2019-09-09 10:04:20.978 +02:00 [DBG] Found ["openid","profile"] identity scopes in database
2019-09-09 10:04:20.981 +02:00 [DBG] Found ["api1"] API scopes in database
2019-09-09 10:04:20.984 +02:00 [DBG] Found ["openid","profile"] identity scopes in database
2019-09-09 10:04:20.988 +02:00 [DBG] Found ["api1"] API scopes in database
2019-09-09 10:04:20.989 +02:00 [DBG] Calling into custom validator: IdentityServer4.Validation.DefaultCustomAuthorizeRequestValidator
2019-09-09 10:04:21.197 +02:00 [DBG] Augmenting SignInContext
2019-09-09 10:04:21.200 +02:00 [DBG] Adding idp claim with value: local
2019-09-09 10:04:21.200 +02:00 [DBG] Adding amr claim with value: pwd
2019-09-09 10:04:21.201 +02:00 [DBG] Adding auth_time claim with value: 1568016261
2019-09-09 10:04:21.212 +02:00 [INF] AuthenticationScheme: Identity.Application signed in.
2019-09-09 10:04:21.228 +02:00 [INF] {"Username":"patryk","Provider":null,"ProviderUserId":null,"SubjectId":"d1bb7ba2-3707-4bf4-bacd-e325184399e3","DisplayName":"patryk","Endpoint":"UI","Category":"Authentication","Name":"User Login Success","EventType":"Success","Id":1000,"Message":null,"ActivityId":"0HLPKVGR355DH:00000001","TimeStamp":"2019-09-09T08:04:21.0000000Z","ProcessId":1860,"LocalIpAddress":"::1:5000","RemoteIpAddress":"::1","$type":"UserLoginSuccessEvent"}
2019-09-09 10:04:21.235 +02:00 [DBG] mvc found in database: true
2019-09-09 10:04:21.235 +02:00 [DBG] client configuration validation for client mvc succeeded.
2019-09-09 10:04:21.271 +02:00 [DBG] Request path /connect/authorize/callback matched to endpoint type Authorize
2019-09-09 10:04:21.272 +02:00 [DBG] Endpoint enabled: Authorize, successfully created handler: IdentityServer4.Endpoints.AuthorizeCallbackEndpoint
2019-09-09 10:04:21.272 +02:00 [INF] Invoking IdentityServer endpoint: IdentityServer4.Endpoints.AuthorizeCallbackEndpoint for /connect/authorize/callback
2019-09-09 10:04:21.278 +02:00 [DBG] Start authorize callback request
2019-09-09 10:04:21.282 +02:00 [DBG] User in authorize request: d1bb7ba2-3707-4bf4-bacd-e325184399e3
2019-09-09 10:04:21.283 +02:00 [DBG] Start authorize request protocol validation
2019-09-09 10:04:21.288 +02:00 [DBG] mvc found in database: true
2019-09-09 10:04:21.288 +02:00 [DBG] client configuration validation for client mvc succeeded.
2019-09-09 10:04:21.288 +02:00 [DBG] Checking for PKCE parameters
2019-09-09 10:04:21.288 +02:00 [DBG] No PKCE used.
2019-09-09 10:04:21.290 +02:00 [DBG] Found ["openid","profile"] identity scopes in database
2019-09-09 10:04:21.294 +02:00 [DBG] Found ["api1"] API scopes in database
2019-09-09 10:04:21.296 +02:00 [DBG] Found ["openid","profile"] identity scopes in database
2019-09-09 10:04:21.300 +02:00 [DBG] Found ["api1"] API scopes in database
2019-09-09 10:04:21.300 +02:00 [DBG] Calling into custom validator: IdentityServer4.Validation.DefaultCustomAuthorizeRequestValidator
2019-09-09 10:04:21.301 +02:00 [INF] ValidatedAuthorizeRequest
{"ClientId":"mvc","ClientName":"MVC Client","RedirectUri":"http://localhost:5002/signin-oidc","AllowedRedirectUris":["http://localhost:5002/signin-oidc"],"SubjectId":"d1bb7ba2-3707-4bf4-bacd-e325184399e3","ResponseType":"code id_token","ResponseMode":"form_post","GrantType":"hybrid","RequestedScopes":"openid profile api1 offline_access","State":"CfDJ8PoZ6vhDMDBFlMgpVxoCiKAZYOzP5vmZrPQeBVVKm28O_6PYB7JX5Cp05j9Lpr-pxSSd0GVxsp_9x289ywkElI7AlWqVnxLslss0tf2vsfPgzgoa1ZzCvMSkLWKJ8oBeEAqswswddQmTrd_ZvIiRqvs65NKX63q2EqyX7YrzMxJNCsKNiqIQVxoxkWbcOKNu32I2puK8Xu5yKB8IGkMNUYMyAm_hrQ1PTOGKLSnwZINXHeXHqYihup3hCQvJSE67dxzrfovuz6SCktiww3riiB_WSyIIt7foDFHrE-mdAcwMwISKxeTTET-nWMZvXvWJR2bq_ipXIxl2N1sgUmRuK9Y","UiLocales":null,"Nonce":"637036130451449956.NWY4MDIwNmUtZWFhZS00MTY3LWIyZWUtMDBlMDJhZmZjNjUxNjA3MTIyYjktMDk0Zi00ZWY4LWJjMjEtNjQ2ZTM5ZjU3Njhh","AuthenticationContextReferenceClasses":null,"DisplayMode":null,"PromptMode":null,"MaxAge":null,"LoginHint":null,"SessionId":"942fdf67601363e37567d7f0cb40f3ca","Raw":{"client_id":"mvc","redirect_uri":"http://localhost:5002/signin-oidc","response_type":"code id_token","scope":"openid profile api1 offline_access","response_mode":"form_post","nonce":"637036130451449956.NWY4MDIwNmUtZWFhZS00MTY3LWIyZWUtMDBlMDJhZmZjNjUxNjA3MTIyYjktMDk0Zi00ZWY4LWJjMjEtNjQ2ZTM5ZjU3Njhh","state":"CfDJ8PoZ6vhDMDBFlMgpVxoCiKAZYOzP5vmZrPQeBVVKm28O_6PYB7JX5Cp05j9Lpr-pxSSd0GVxsp_9x289ywkElI7AlWqVnxLslss0tf2vsfPgzgoa1ZzCvMSkLWKJ8oBeEAqswswddQmTrd_ZvIiRqvs65NKX63q2EqyX7YrzMxJNCsKNiqIQVxoxkWbcOKNu32I2puK8Xu5yKB8IGkMNUYMyAm_hrQ1PTOGKLSnwZINXHeXHqYihup3hCQvJSE67dxzrfovuz6SCktiww3riiB_WSyIIt7foDFHrE-mdAcwMwISKxeTTET-nWMZvXvWJR2bq_ipXIxl2N1sgUmRuK9Y","x-client-SKU":"ID_NETSTANDARD1_4","x-client-ver":"5.2.0.0"},"$type":"AuthorizeRequestValidationLog"}
2019-09-09 10:04:21.336 +02:00 [DBG] Scopes contains offline_access, consent is required
2019-09-09 10:04:21.337 +02:00 [INF] Showing consent: User has not yet consented
2019-09-09 10:04:21.368 +02:00 [DBG] Start authorize request protocol validation
2019-09-09 10:04:21.376 +02:00 [DBG] mvc found in database: true
2019-09-09 10:04:21.377 +02:00 [DBG] client configuration validation for client mvc succeeded.
2019-09-09 10:04:21.378 +02:00 [DBG] Checking for PKCE parameters
2019-09-09 10:04:21.378 +02:00 [DBG] No PKCE used.
2019-09-09 10:04:21.380 +02:00 [DBG] Found ["openid","profile"] identity scopes in database
2019-09-09 10:04:21.384 +02:00 [DBG] Found ["api1"] API scopes in database
2019-09-09 10:04:21.386 +02:00 [DBG] Found ["openid","profile"] identity scopes in database
2019-09-09 10:04:21.390 +02:00 [DBG] Found ["api1"] API scopes in database
2019-09-09 10:04:21.390 +02:00 [DBG] Calling into custom validator: IdentityServer4.Validation.DefaultCustomAuthorizeRequestValidator
2019-09-09 10:04:21.394 +02:00 [DBG] mvc found in database: true
2019-09-09 10:04:21.394 +02:00 [DBG] client configuration validation for client mvc succeeded.
2019-09-09 10:04:21.405 +02:00 [DBG] Found ["openid","profile"] identity scopes in database
2019-09-09 10:04:21.503 +02:00 [DBG] Found ["api1"] API scopes in database
2019-09-09 10:04:23.976 +02:00 [DBG] CORS request made for path: /consent from origin: null but was ignored because path was not for an allowed IdentityServer CORS endpoint
2019-09-09 10:04:23.995 +02:00 [DBG] Start authorize request protocol validation
2019-09-09 10:04:24.000 +02:00 [DBG] mvc found in database: true
2019-09-09 10:04:24.001 +02:00 [DBG] client configuration validation for client mvc succeeded.
2019-09-09 10:04:24.001 +02:00 [DBG] Checking for PKCE parameters
2019-09-09 10:04:24.002 +02:00 [DBG] No PKCE used.
2019-09-09 10:04:24.004 +02:00 [DBG] Found ["openid","profile"] identity scopes in database
2019-09-09 10:04:24.007 +02:00 [DBG] Found ["api1"] API scopes in database
2019-09-09 10:04:24.009 +02:00 [DBG] Found ["openid","profile"] identity scopes in database
2019-09-09 10:04:24.012 +02:00 [DBG] Found ["api1"] API scopes in database
2019-09-09 10:04:24.013 +02:00 [DBG] Calling into custom validator: IdentityServer4.Validation.DefaultCustomAuthorizeRequestValidator
2019-09-09 10:04:24.015 +02:00 [INF] {"SubjectId":"d1bb7ba2-3707-4bf4-bacd-e325184399e3","ClientId":"mvc","RequestedScopes":["openid","profile","api1","offline_access"],"GrantedScopes":["openid","profile","api1","offline_access"],"ConsentRemembered":true,"Category":"Grants","Name":"Consent granted","EventType":"Information","Id":4000,"Message":null,"ActivityId":"0HLPKVGR355DH:00000004","TimeStamp":"2019-09-09T08:04:24.0000000Z","ProcessId":1860,"LocalIpAddress":"::1:5000","RemoteIpAddress":"::1","$type":"ConsentGrantedEvent"}
2019-09-09 10:04:24.039 +02:00 [DBG] mvc found in database: true
2019-09-09 10:04:24.039 +02:00 [DBG] client configuration validation for client mvc succeeded.
2019-09-09 10:04:24.059 +02:00 [DBG] Request path /connect/authorize/callback matched to endpoint type Authorize
2019-09-09 10:04:24.060 +02:00 [DBG] Endpoint enabled: Authorize, successfully created handler: IdentityServer4.Endpoints.AuthorizeCallbackEndpoint
2019-09-09 10:04:24.061 +02:00 [INF] Invoking IdentityServer endpoint: IdentityServer4.Endpoints.AuthorizeCallbackEndpoint for /connect/authorize/callback
2019-09-09 10:04:24.061 +02:00 [DBG] Start authorize callback request
2019-09-09 10:04:24.065 +02:00 [DBG] User in authorize request: d1bb7ba2-3707-4bf4-bacd-e325184399e3
2019-09-09 10:04:24.066 +02:00 [DBG] Start authorize request protocol validation
2019-09-09 10:04:24.071 +02:00 [DBG] mvc found in database: true
2019-09-09 10:04:24.071 +02:00 [DBG] client configuration validation for client mvc succeeded.
2019-09-09 10:04:24.072 +02:00 [DBG] Checking for PKCE parameters
2019-09-09 10:04:24.072 +02:00 [DBG] No PKCE used.
2019-09-09 10:04:24.074 +02:00 [DBG] Found ["openid","profile"] identity scopes in database
2019-09-09 10:04:24.079 +02:00 [DBG] Found ["api1"] API scopes in database
2019-09-09 10:04:24.106 +02:00 [DBG] Found ["openid","profile"] identity scopes in database
2019-09-09 10:04:24.112 +02:00 [DBG] Found ["api1"] API scopes in database
2019-09-09 10:04:24.112 +02:00 [DBG] Calling into custom validator: IdentityServer4.Validation.DefaultCustomAuthorizeRequestValidator
2019-09-09 10:04:24.113 +02:00 [INF] ValidatedAuthorizeRequest
{"ClientId":"mvc","ClientName":"MVC Client","RedirectUri":"http://localhost:5002/signin-oidc","AllowedRedirectUris":["http://localhost:5002/signin-oidc"],"SubjectId":"d1bb7ba2-3707-4bf4-bacd-e325184399e3","ResponseType":"code id_token","ResponseMode":"form_post","GrantType":"hybrid","RequestedScopes":"openid profile api1 offline_access","State":"CfDJ8PoZ6vhDMDBFlMgpVxoCiKAZYOzP5vmZrPQeBVVKm28O_6PYB7JX5Cp05j9Lpr-pxSSd0GVxsp_9x289ywkElI7AlWqVnxLslss0tf2vsfPgzgoa1ZzCvMSkLWKJ8oBeEAqswswddQmTrd_ZvIiRqvs65NKX63q2EqyX7YrzMxJNCsKNiqIQVxoxkWbcOKNu32I2puK8Xu5yKB8IGkMNUYMyAm_hrQ1PTOGKLSnwZINXHeXHqYihup3hCQvJSE67dxzrfovuz6SCktiww3riiB_WSyIIt7foDFHrE-mdAcwMwISKxeTTET-nWMZvXvWJR2bq_ipXIxl2N1sgUmRuK9Y","UiLocales":null,"Nonce":"637036130451449956.NWY4MDIwNmUtZWFhZS00MTY3LWIyZWUtMDBlMDJhZmZjNjUxNjA3MTIyYjktMDk0Zi00ZWY4LWJjMjEtNjQ2ZTM5ZjU3Njhh","AuthenticationContextReferenceClasses":null,"DisplayMode":null,"PromptMode":null,"MaxAge":null,"LoginHint":null,"SessionId":"942fdf67601363e37567d7f0cb40f3ca","Raw":{"client_id":"mvc","redirect_uri":"http://localhost:5002/signin-oidc","response_type":"code id_token","scope":"openid profile api1 offline_access","response_mode":"form_post","nonce":"637036130451449956.NWY4MDIwNmUtZWFhZS00MTY3LWIyZWUtMDBlMDJhZmZjNjUxNjA3MTIyYjktMDk0Zi00ZWY4LWJjMjEtNjQ2ZTM5ZjU3Njhh","state":"CfDJ8PoZ6vhDMDBFlMgpVxoCiKAZYOzP5vmZrPQeBVVKm28O_6PYB7JX5Cp05j9Lpr-pxSSd0GVxsp_9x289ywkElI7AlWqVnxLslss0tf2vsfPgzgoa1ZzCvMSkLWKJ8oBeEAqswswddQmTrd_ZvIiRqvs65NKX63q2EqyX7YrzMxJNCsKNiqIQVxoxkWbcOKNu32I2puK8Xu5yKB8IGkMNUYMyAm_hrQ1PTOGKLSnwZINXHeXHqYihup3hCQvJSE67dxzrfovuz6SCktiww3riiB_WSyIIt7foDFHrE-mdAcwMwISKxeTTET-nWMZvXvWJR2bq_ipXIxl2N1sgUmRuK9Y","x-client-SKU":"ID_NETSTANDARD1_4","x-client-ver":"5.2.0.0"},"$type":"AuthorizeRequestValidationLog"}
2019-09-09 10:04:24.121 +02:00 [DBG] Scopes contains offline_access, consent is required
2019-09-09 10:04:24.128 +02:00 [INF] User consented to scopes: ["openid","profile","api1","offline_access"]
2019-09-09 10:04:24.131 +02:00 [DBG] User indicated to remember consent for scopes: ["openid","profile","api1","offline_access"]
2019-09-09 10:04:24.135 +02:00 [DBG] Client allows remembering consent, and consent given. Updating consent store for subject: d1bb7ba2-3707-4bf4-bacd-e325184399e3
2019-09-09 10:04:24.167 +02:00 [DBG] 4SLGRUS1iSL/LzGt1NjSWx6QRheQ5isDOzZmnQbRlpU= found in database
2019-09-09 10:04:24.263 +02:00 [DBG] Creating Hybrid Flow response.
2019-09-09 10:04:24.283 +02:00 [DBG] vbU4e2STEtDeznDnWk6ob4bjsoXbT/03VHEfBXUn9dY= not found in database
2019-09-09 10:04:24.326 +02:00 [DBG] Creating Implicit Flow response.
2019-09-09 10:04:24.338 +02:00 [DBG] Getting claims for identity token for subject: d1bb7ba2-3707-4bf4-bacd-e325184399e3 and client: mvc
2019-09-09 10:04:24.341 +02:00 [DBG] In addition to an id_token, an access_token was requested. No claims other than sub are included in the id_token. To obtain more user claims, either use the user info endpoint or set AlwaysIncludeUserClaimsInIdToken on the client configuration.
2019-09-09 10:04:24.419 +02:00 [INF] {"ClientId":"mvc","ClientName":"MVC Client","RedirectUri":"http://localhost:5002/signin-oidc","Endpoint":"Authorize","SubjectId":"d1bb7ba2-3707-4bf4-bacd-e325184399e3","Scopes":"openid profile api1 offline_access","GrantType":"hybrid","Tokens":[{"TokenType":"id_token","TokenValue":"****83VQ","$type":"Token"},{"TokenType":"code","TokenValue":"****6c3c","$type":"Token"}],"Category":"Token","Name":"Token Issued Success","EventType":"Success","Id":2000,"Message":null,"ActivityId":"0HLPKVGR355DH:00000005","TimeStamp":"2019-09-09T08:04:24.0000000Z","ProcessId":1860,"LocalIpAddress":"::1:5000","RemoteIpAddress":"::1","$type":"TokenIssuedSuccessEvent"}
2019-09-09 10:04:24.423 +02:00 [INF] Authorize endpoint response
{"SubjectId":"d1bb7ba2-3707-4bf4-bacd-e325184399e3","ClientId":"mvc","RedirectUri":"http://localhost:5002/signin-oidc","State":"CfDJ8PoZ6vhDMDBFlMgpVxoCiKAZYOzP5vmZrPQeBVVKm28O_6PYB7JX5Cp05j9Lpr-pxSSd0GVxsp_9x289ywkElI7AlWqVnxLslss0tf2vsfPgzgoa1ZzCvMSkLWKJ8oBeEAqswswddQmTrd_ZvIiRqvs65NKX63q2EqyX7YrzMxJNCsKNiqIQVxoxkWbcOKNu32I2puK8Xu5yKB8IGkMNUYMyAm_hrQ1PTOGKLSnwZINXHeXHqYihup3hCQvJSE67dxzrfovuz6SCktiww3riiB_WSyIIt7foDFHrE-mdAcwMwISKxeTTET-nWMZvXvWJR2bq_ipXIxl2N1sgUmRuK9Y","Scope":"openid profile api1 offline_access","Error":null,"ErrorDescription":null,"$type":"AuthorizeResponseLog"}
2019-09-09 10:04:24.445 +02:00 [DBG] Augmenting SignInContext
2019-09-09 10:04:24.446 +02:00 [INF] AuthenticationScheme: Identity.Application signed in.
2019-09-09 10:04:24.578 +02:00 [DBG] Request path /connect/token matched to endpoint type Token
2019-09-09 10:04:24.585 +02:00 [DBG] Endpoint enabled: Token, successfully created handler: IdentityServer4.Endpoints.TokenEndpoint
2019-09-09 10:04:24.586 +02:00 [INF] Invoking IdentityServer endpoint: IdentityServer4.Endpoints.TokenEndpoint for /connect/token
2019-09-09 10:04:24.594 +02:00 [DBG] Start token request.
2019-09-09 10:04:24.603 +02:00 [DBG] Start client validation
2019-09-09 10:04:24.609 +02:00 [DBG] Start parsing Basic Authentication secret
2019-09-09 10:04:24.613 +02:00 [DBG] Start parsing for secret in post body
2019-09-09 10:04:24.614 +02:00 [DBG] Parser found secret: PostBodySecretParser
2019-09-09 10:04:24.614 +02:00 [DBG] Secret id found: mvc
2019-09-09 10:04:24.618 +02:00 [DBG] mvc found in database: true
2019-09-09 10:04:24.619 +02:00 [DBG] client configuration validation for client mvc succeeded.
2019-09-09 10:04:24.629 +02:00 [DBG] Secret validator success: HashedSharedSecretValidator
2019-09-09 10:04:24.629 +02:00 [DBG] Client validation success
2019-09-09 10:04:24.630 +02:00 [INF] {"ClientId":"mvc","AuthenticationMethod":"SharedSecret","Category":"Authentication","Name":"Client Authentication Success","EventType":"Success","Id":1010,"Message":null,"ActivityId":"0HLPKVGR355DF:00000003","TimeStamp":"2019-09-09T08:04:24.0000000Z","ProcessId":1860,"LocalIpAddress":"::1:5000","RemoteIpAddress":"::1","$type":"ClientAuthenticationSuccessEvent"}
2019-09-09 10:04:24.638 +02:00 [DBG] Start token request validation
2019-09-09 10:04:24.649 +02:00 [DBG] Start validation of authorization code token request
2019-09-09 10:04:24.669 +02:00 [DBG] vbU4e2STEtDeznDnWk6ob4bjsoXbT/03VHEfBXUn9dY= found in database: true
2019-09-09 10:04:24.687 +02:00 [DBG] removing vbU4e2STEtDeznDnWk6ob4bjsoXbT/03VHEfBXUn9dY= persisted grant from database
2019-09-09 10:04:24.698 +02:00 [DBG] Validation of authorization code token request success
2019-09-09 10:04:24.704 +02:00 [INF] Token request validation success
{"ClientId":"mvc","ClientName":"MVC Client","GrantType":"authorization_code","Scopes":null,"AuthorizationCode":"2a8707d1ec09f0d1a5641d7d905221e53e48fb584dd58c2e4290761bdbe46c3c","RefreshToken":null,"UserName":null,"AuthenticationContextReferenceClasses":null,"Tenant":null,"IdP":null,"Raw":{"client_id":"mvc","client_secret":"***REDACTED***","code":"2a8707d1ec09f0d1a5641d7d905221e53e48fb584dd58c2e4290761bdbe46c3c","grant_type":"authorization_code","redirect_uri":"http://localhost:5002/signin-oidc"},"$type":"TokenRequestValidationLog"}
2019-09-09 10:04:24.734 +02:00 [DBG] mvc found in database: true
2019-09-09 10:04:24.735 +02:00 [DBG] client configuration validation for client mvc succeeded.
2019-09-09 10:04:24.737 +02:00 [DBG] Found ["openid","profile"] identity scopes in database
2019-09-09 10:04:24.740 +02:00 [DBG] Found ["api1"] API scopes in database
2019-09-09 10:04:24.753 +02:00 [DBG] Getting claims for access token for client: mvc
2019-09-09 10:04:24.754 +02:00 [DBG] Getting claims for access token for subject: d1bb7ba2-3707-4bf4-bacd-e325184399e3
2019-09-09 10:04:24.779 +02:00 [DBG] Creating refresh token
2019-09-09 10:04:24.779 +02:00 [DBG] Setting an absolute lifetime: 2592000
2019-09-09 10:04:24.793 +02:00 [DBG] H5oychlwwKzp2mt/5bcqw5sX5Gq/R71BZzKri7tLkfM= not found in database
2019-09-09 10:04:24.801 +02:00 [DBG] mvc found in database: true
2019-09-09 10:04:24.802 +02:00 [DBG] client configuration validation for client mvc succeeded.
2019-09-09 10:04:24.804 +02:00 [DBG] Found ["openid","profile"] identity scopes in database
2019-09-09 10:04:24.808 +02:00 [DBG] Found ["api1"] API scopes in database
2019-09-09 10:04:24.809 +02:00 [DBG] Getting claims for identity token for subject: d1bb7ba2-3707-4bf4-bacd-e325184399e3 and client: mvc
2019-09-09 10:04:24.809 +02:00 [DBG] In addition to an id_token, an access_token was requested. No claims other than sub are included in the id_token. To obtain more user claims, either use the user info endpoint or set AlwaysIncludeUserClaimsInIdToken on the client configuration.
2019-09-09 10:04:24.819 +02:00 [INF] {"ClientId":"mvc","ClientName":"MVC Client","RedirectUri":null,"Endpoint":"Token","SubjectId":null,"Scopes":"openid profile api1 offline_access","GrantType":"authorization_code","Tokens":[{"TokenType":"id_token","TokenValue":"****S1Ug","$type":"Token"},{"TokenType":"refresh_token","TokenValue":"****50be","$type":"Token"},{"TokenType":"access_token","TokenValue":"****XHPA","$type":"Token"}],"Category":"Token","Name":"Token Issued Success","EventType":"Success","Id":2000,"Message":null,"ActivityId":"0HLPKVGR355DF:00000003","TimeStamp":"2019-09-09T08:04:24.0000000Z","ProcessId":1860,"LocalIpAddress":"::1:5000","RemoteIpAddress":"::1","$type":"TokenIssuedSuccessEvent"}
2019-09-09 10:04:24.823 +02:00 [DBG] Token request success.
2019-09-09 10:04:24.837 +02:00 [DBG] Request path /connect/userinfo matched to endpoint type Userinfo
2019-09-09 10:04:24.839 +02:00 [DBG] Endpoint enabled: Userinfo, successfully created handler: IdentityServer4.Endpoints.UserInfoEndpoint
2019-09-09 10:04:24.839 +02:00 [INF] Invoking IdentityServer endpoint: IdentityServer4.Endpoints.UserInfoEndpoint for /connect/userinfo
2019-09-09 10:04:24.847 +02:00 [DBG] Start userinfo request
2019-09-09 10:04:24.851 +02:00 [DBG] Bearer token found in header
2019-09-09 10:04:24.922 +02:00 [DBG] mvc found in database: true
2019-09-09 10:04:24.923 +02:00 [DBG] client configuration validation for client mvc succeeded.
2019-09-09 10:04:24.933 +02:00 [DBG] mvc found in database: true
2019-09-09 10:04:24.934 +02:00 [DBG] client configuration validation for client mvc succeeded.
2019-09-09 10:04:24.944 +02:00 [DBG] Calling into custom token validator: IdentityServer4.Validation.DefaultCustomTokenValidator
2019-09-09 10:04:24.948 +02:00 [DBG] Token validation success
{"ClientId":null,"ClientName":null,"ValidateLifetime":true,"AccessTokenType":"Jwt","ExpectedScope":"openid","TokenHandle":null,"JwtId":null,"Claims":{"nbf":1568016264,"exp":1568019864,"iss":"http://localhost:5000","aud":["http://localhost:5000/resources","api1"],"client_id":"mvc","sub":"d1bb7ba2-3707-4bf4-bacd-e325184399e3","auth_time":1568016261,"idp":"local","scope":["openid","profile","api1","offline_access"],"amr":"pwd"},"$type":"TokenValidationLog"}
2019-09-09 10:04:24.968 +02:00 [DBG] Creating userinfo response
2019-09-09 10:04:24.974 +02:00 [DBG] Scopes in access token: openid profile api1 offline_access
2019-09-09 10:04:24.977 +02:00 [DBG] Scopes in access token: openid profile api1 offline_access
2019-09-09 10:04:24.983 +02:00 [DBG] Found ["openid","profile"] identity scopes in database
2019-09-09 10:04:24.984 +02:00 [DBG] Requested claim types: sub name family_name given_name middle_name nickname preferred_username profile picture website gender birthdate zoneinfo locale updated_at
2019-09-09 10:04:24.985 +02:00 [DBG] Scopes in access token: openid profile api1 offline_access
2019-09-09 10:04:24.987 +02:00 [DBG] Found ["openid","profile"] identity scopes in database
2019-09-09 10:04:24.992 +02:00 [INF] Profile service returned the following claim types: sub preferred_username name
2019-09-09 10:04:24.993 +02:00 [DBG] End userinfo request
2019-09-09 10:04:28.839 +02:00 [DBG] Request path /connect/endsession matched to endpoint type Endsession
2019-09-09 10:04:28.840 +02:00 [DBG] Endpoint enabled: Endsession, successfully created handler: IdentityServer4.Endpoints.EndSessionEndpoint
2019-09-09 10:04:28.841 +02:00 [INF] Invoking IdentityServer endpoint: IdentityServer4.Endpoints.EndSessionEndpoint for /connect/endsession
2019-09-09 10:04:28.846 +02:00 [DBG] Processing signout request for d1bb7ba2-3707-4bf4-bacd-e325184399e3
2019-09-09 10:04:28.854 +02:00 [DBG] Start end session request validation
2019-09-09 10:04:28.860 +02:00 [DBG] Start identity token validation
2019-09-09 10:04:28.868 +02:00 [DBG] mvc found in database: true
2019-09-09 10:04:28.869 +02:00 [DBG] client configuration validation for client mvc succeeded.
2019-09-09 10:04:28.869 +02:00 [DBG] Client found: mvc / MVC Client
2019-09-09 10:04:28.877 +02:00 [DBG] Calling into custom token validator: IdentityServer4.Validation.DefaultCustomTokenValidator
2019-09-09 10:04:28.878 +02:00 [DBG] Token validation success
{"ClientId":"mvc","ClientName":"MVC Client","ValidateLifetime":false,"AccessTokenType":null,"ExpectedScope":null,"TokenHandle":null,"JwtId":null,"Claims":{"nbf":1568016264,"exp":1568016564,"iss":"http://localhost:5000","aud":"mvc","nonce":"637036130451449956.NWY4MDIwNmUtZWFhZS00MTY3LWIyZWUtMDBlMDJhZmZjNjUxNjA3MTIyYjktMDk0Zi00ZWY4LWJjMjEtNjQ2ZTM5ZjU3Njhh","iat":1568016264,"at_hash":"qUZ9oN7iHXU1kmLmEeXXvA","sid":"942fdf67601363e37567d7f0cb40f3ca","sub":"d1bb7ba2-3707-4bf4-bacd-e325184399e3","auth_time":1568016261,"idp":"local","amr":"pwd"},"$type":"TokenValidationLog"}
2019-09-09 10:04:28.885 +02:00 [INF] End session request validation success
{"ClientId":"mvc","ClientName":"MVC Client","SubjectId":"d1bb7ba2-3707-4bf4-bacd-e325184399e3","PostLogOutUri":"http://localhost:5002/signout-callback-oidc","State":"CfDJ8PoZ6vhDMDBFlMgpVxoCiKDI-FbF3vP4bKl05dyT6LzqNlYOu74fToFuOETrHw52dq6UwTqcatdM7kESf-5eKX0P9UlY-YCp5XY2phYZlWM-DPrmjDJZEXeCY_cl0cITy2wjgJbL8hefCG9AtaO6KrB2CPYICz-7KzjEJSibdmOk","Raw":{"post_logout_redirect_uri":"http://localhost:5002/signout-callback-oidc","id_token_hint":"eyJhbGciOiJSUzI1NiIsImtpZCI6IjJjNTYxYzFmM2RiOTNkNTVjM2IyMTZhZTVhMTJlMGI1IiwidHlwIjoiSldUIn0.eyJuYmYiOjE1NjgwMTYyNjQsImV4cCI6MTU2ODAxNjU2NCwiaXNzIjoiaHR0cDovL2xvY2FsaG9zdDo1MDAwIiwiYXVkIjoibXZjIiwibm9uY2UiOiI2MzcwMzYxMzA0NTE0NDk5NTYuTldZNE1ESXdObVV0WldGaFpTMDBNVFkzTFdJeVpXVXRNREJsTURKaFptWmpOalV4TmpBM01USXlZamt0TURrMFppMDBaV1k0TFdKak1qRXROalEyWlRNNVpqVTNOamhoIiwiaWF0IjoxNTY4MDE2MjY0LCJhdF9oYXNoIjoicVVaOW9ON2lIWFUxa21MbUVlWFh2QSIsInNpZCI6Ijk0MmZkZjY3NjAxMzYzZTM3NTY3ZDdmMGNiNDBmM2NhIiwic3ViIjoiZDFiYjdiYTItMzcwNy00YmY0LWJhY2QtZTMyNTE4NDM5OWUzIiwiYXV0aF90aW1lIjoxNTY4MDE2MjYxLCJpZHAiOiJsb2NhbCIsImFtciI6WyJwd2QiXX0.oHhlvBibFJVNkE9ax7Ci6xFJ7vCBbF2ELHsV71vLw3xj95gO2yaleoK-ruvd1nh46uewjCtmgPU1NwEroclktZg24hm9uQe5SOtsQ-XFQW6Nz5dBXg3WznsYyYaxj18TtKOJ6WdJ70rw3NE6lwehXVRXwhrv6dn0cEQvSf_z2OUXUztZYHU5URKdu5naJL0UzAsLeSQETfTrFMD-yS7xJ8EnJzZX1u9oD23d9lf-vw214eKryMwYpEc8ynwNXAZ0cYDO6tiZnbXFsYT72Ar1hvzBrzPMVGHPSin4R9j1iA0bPVt1KdOnfLZcYh9gqQQkQVBrDteqteroBAqVI5S1Ug","state":"CfDJ8PoZ6vhDMDBFlMgpVxoCiKDI-FbF3vP4bKl05dyT6LzqNlYOu74fToFuOETrHw52dq6UwTqcatdM7kESf-5eKX0P9UlY-YCp5XY2phYZlWM-DPrmjDJZEXeCY_cl0cITy2wjgJbL8hefCG9AtaO6KrB2CPYICz-7KzjEJSibdmOk","x-client-SKU":"ID_NETSTANDARD1_4","x-client-ver":"5.2.0.0"},"$type":"EndSessionRequestValidationLog"}
2019-09-09 10:04:28.889 +02:00 [DBG] Success validating end session request from mvc
2019-09-09 10:04:28.987 +02:00 [INF] AuthenticationScheme: Identity.Application signed out.
2019-09-09 10:04:28.988 +02:00 [INF] AuthenticationScheme: Identity.External signed out.
2019-09-09 10:04:28.988 +02:00 [INF] AuthenticationScheme: Identity.TwoFactorUserId signed out.
2019-09-09 10:04:28.990 +02:00 [INF] {"SubjectId":"d1bb7ba2-3707-4bf4-bacd-e325184399e3","DisplayName":"patryk","Category":"Authentication","Name":"User Logout Success","EventType":"Success","Id":1002,"Message":null,"ActivityId":"0HLPKVGR355DH:00000007","TimeStamp":"2019-09-09T08:04:28.0000000Z","ProcessId":1860,"LocalIpAddress":"::1:5000","RemoteIpAddress":"::1","$type":"UserLogoutSuccessEvent"}
2019-09-09 10:04:29.074 +02:00 [DBG] Request path /connect/endsession/callback matched to endpoint type Endsession
2019-09-09 10:04:29.076 +02:00 [DBG] Endpoint enabled: Endsession, successfully created handler: IdentityServer4.Endpoints.EndSessionCallbackEndpoint
2019-09-09 10:04:29.077 +02:00 [INF] Invoking IdentityServer endpoint: IdentityServer4.Endpoints.EndSessionCallbackEndpoint for /connect/endsession/callback
2019-09-09 10:04:29.084 +02:00 [DBG] Processing signout callback request
2019-09-09 10:04:29.099 +02:00 [DBG] mvc found in database: true
2019-09-09 10:04:29.100 +02:00 [DBG] client configuration validation for client mvc succeeded.
2019-09-09 10:04:29.100 +02:00 [DBG] No client front-channel logout URLs
2019-09-09 10:04:29.101 +02:00 [DBG] No client back-channel logout URLs
2019-09-09 10:04:29.101 +02:00 [INF] Successful signout callback.
2019-09-09 10:04:29.101 +02:00 [DBG] No client front-channel iframe urls
2019-09-09 10:04:29.101 +02:00 [DBG] No client back-channel iframe urls
2019-09-09 10:35:49.812 +02:00 [INF] Starting IdentityServer4 version 2.3.2.0
2019-09-09 10:35:49.888 +02:00 [INF] Using the default authentication scheme Identity.Application for IdentityServer
2019-09-09 10:35:49.889 +02:00 [DBG] Using Identity.Application as default ASP.NET Core scheme for authentication
2019-09-09 10:35:49.889 +02:00 [DBG] Using Identity.External as default ASP.NET Core scheme for sign-in
2019-09-09 10:35:49.890 +02:00 [DBG] Using Identity.External as default ASP.NET Core scheme for sign-out
2019-09-09 10:35:49.890 +02:00 [DBG] Using Identity.Application as default ASP.NET Core scheme for challenge
2019-09-09 10:35:49.891 +02:00 [DBG] Using Identity.Application as default ASP.NET Core scheme for forbid
2019-09-09 10:35:49.992 +02:00 [DBG] Starting grant removal
2019-09-09 10:35:50.657 +02:00 [DBG] Login Url: /Account/Login
2019-09-09 10:35:50.660 +02:00 [DBG] Login Return Url Parameter: ReturnUrl
2019-09-09 10:35:50.661 +02:00 [DBG] Logout Url: /Account/Logout
2019-09-09 10:35:50.661 +02:00 [DBG] ConsentUrl Url: /consent
2019-09-09 10:35:50.661 +02:00 [DBG] Consent Return Url Parameter: returnUrl
2019-09-09 10:35:50.661 +02:00 [DBG] Error Url: /home/error
2019-09-09 10:35:50.662 +02:00 [DBG] Error Id Parameter: errorId
2019-09-09 10:38:26.771 +02:00 [DBG] CORS request made for path: /account from origin: http://localhost:4200 but was ignored because path was not for an allowed IdentityServer CORS endpoint
